CptXBits/simulation/qsim/CptXBits.msim.vcd
$comment
	File created using the following command:
		vcd file CptXBits.msim.vcd -direction
$end
$date
	Sun Oct 17 18:10:42 2021
$end
$version
	ModelSim Version 2020.1
$end
$timescale
	1ps
$end

$scope module CptXBits_vlg_vec_tst $end
$var reg 1 ! ClkRef $end
$var reg 1 " Gate $end
$var wire 1 # Cpt [21] $end
$var wire 1 $ Cpt [20] $end
$var wire 1 % Cpt [19] $end
$var wire 1 & Cpt [18] $end
$var wire 1 ' Cpt [17] $end
$var wire 1 ( Cpt [16] $end
$var wire 1 ) Cpt [15] $end
$var wire 1 * Cpt [14] $end
$var wire 1 + Cpt [13] $end
$var wire 1 , Cpt [12] $end
$var wire 1 - Cpt [11] $end
$var wire 1 . Cpt [10] $end
$var wire 1 / Cpt [9] $end
$var wire 1 0 Cpt [8] $end
$var wire 1 1 Cpt [7] $end
$var wire 1 2 Cpt [6] $end
$var wire 1 3 Cpt [5] $end
$var wire 1 4 Cpt [4] $end
$var wire 1 5 Cpt [3] $end
$var wire 1 6 Cpt [2] $end
$var wire 1 7 Cpt [1] $end
$var wire 1 8 Cpt [0] $end

$scope module i1 $end
$var wire 1 9 gnd $end
$var wire 1 : vcc $end
$var wire 1 ; unknown $end
$var tri1 1 < devclrn $end
$var tri1 1 = devpor $end
$var tri1 1 > devoe $end
$var wire 1 ? Cpt[0]~output_o $end
$var wire 1 @ Cpt[1]~output_o $end
$var wire 1 A Cpt[2]~output_o $end
$var wire 1 B Cpt[3]~output_o $end
$var wire 1 C Cpt[4]~output_o $end
$var wire 1 D Cpt[5]~output_o $end
$var wire 1 E Cpt[6]~output_o $end
$var wire 1 F Cpt[7]~output_o $end
$var wire 1 G Cpt[8]~output_o $end
$var wire 1 H Cpt[9]~output_o $end
$var wire 1 I Cpt[10]~output_o $end
$var wire 1 J Cpt[11]~output_o $end
$var wire 1 K Cpt[12]~output_o $end
$var wire 1 L Cpt[13]~output_o $end
$var wire 1 M Cpt[14]~output_o $end
$var wire 1 N Cpt[15]~output_o $end
$var wire 1 O Cpt[16]~output_o $end
$var wire 1 P Cpt[17]~output_o $end
$var wire 1 Q Cpt[18]~output_o $end
$var wire 1 R Cpt[19]~output_o $end
$var wire 1 S Cpt[20]~output_o $end
$var wire 1 T Cpt[21]~output_o $end
$var wire 1 U ClkRef~input_o $end
$var wire 1 V iCpt[0]~22_combout $end
$var wire 1 W Gate~input_o $end
$var wire 1 X iCpt[0]~23 $end
$var wire 1 Y iCpt[1]~24_combout $end
$var wire 1 Z iCpt[1]~25 $end
$var wire 1 [ iCpt[2]~26_combout $end
$var wire 1 \ iCpt[2]~27 $end
$var wire 1 ] iCpt[3]~28_combout $end
$var wire 1 ^ iCpt[3]~29 $end
$var wire 1 _ iCpt[4]~30_combout $end
$var wire 1 ` iCpt[4]~31 $end
$var wire 1 a iCpt[5]~32_combout $end
$var wire 1 b iCpt[5]~33 $end
$var wire 1 c iCpt[6]~34_combout $end
$var wire 1 d iCpt[6]~35 $end
$var wire 1 e iCpt[7]~36_combout $end
$var wire 1 f iCpt[7]~37 $end
$var wire 1 g iCpt[8]~38_combout $end
$var wire 1 h iCpt[8]~39 $end
$var wire 1 i iCpt[9]~40_combout $end
$var wire 1 j iCpt[9]~41 $end
$var wire 1 k iCpt[10]~42_combout $end
$var wire 1 l iCpt[10]~43 $end
$var wire 1 m iCpt[11]~44_combout $end
$var wire 1 n iCpt[11]~45 $end
$var wire 1 o iCpt[12]~46_combout $end
$var wire 1 p iCpt[12]~47 $end
$var wire 1 q iCpt[13]~48_combout $end
$var wire 1 r iCpt[13]~49 $end
$var wire 1 s iCpt[14]~50_combout $end
$var wire 1 t iCpt[14]~51 $end
$var wire 1 u iCpt[15]~52_combout $end
$var wire 1 v iCpt[15]~53 $end
$var wire 1 w iCpt[16]~54_combout $end
$var wire 1 x iCpt[16]~55 $end
$var wire 1 y iCpt[17]~56_combout $end
$var wire 1 z iCpt[17]~57 $end
$var wire 1 { iCpt[18]~58_combout $end
$var wire 1 | iCpt[18]~59 $end
$var wire 1 } iCpt[19]~60_combout $end
$var wire 1 ~ iCpt[19]~61 $end
$var wire 1 !! iCpt[20]~62_combout $end
$var wire 1 "! iCpt[20]~63 $end
$var wire 1 #! iCpt[21]~64_combout $end
$var wire 1 $! iCpt [21] $end
$var wire 1 %! iCpt [20] $end
$var wire 1 &! iCpt [19] $end
$var wire 1 '! iCpt [18] $end
$var wire 1 (! iCpt [17] $end
$var wire 1 )! iCpt [16] $end
$var wire 1 *! iCpt [15] $end
$var wire 1 +! iCpt [14] $end
$var wire 1 ,! iCpt [13] $end
$var wire 1 -! iCpt [12] $end
$var wire 1 .! iCpt [11] $end
$var wire 1 /! iCpt [10] $end
$var wire 1 0! iCpt [9] $end
$var wire 1 1! iCpt [8] $end
$var wire 1 2! iCpt [7] $end
$var wire 1 3! iCpt [6] $end
$var wire 1 4! iCpt [5] $end
$var wire 1 5! iCpt [4] $end
$var wire 1 6! iCpt [3] $end
$var wire 1 7! iCpt [2] $end
$var wire 1 8! iCpt [1] $end
$var wire 1 9! iCpt [0] $end
$upscope $end
$upscope $end
$enddefinitions $end
#0
$dumpvars
0!
0"
08
07
06
05
04
03
02
01
00
0/
0.
0-
0,
0+
0*
0)
0(
0'
0&
0%
0$
0#
09
1:
x;
1<
1=
1>
0?
0@
0A
0B
0C
0D
0E
0F
0G
0H
0I
0J
0K
0L
0M
0N
0O
0P
0Q
0R
0S
0T
0U
1V
0W
0X
0Y
1Z
0[
0\
0]
1^
0_
0`
0a
1b
0c
0d
0e
1f
0g
0h
0i
1j
0k
0l
0m
1n
0o
0p
0q
1r
0s
0t
0u
1v
0w
0x
0y
1z
0{
0|
0}
1~
0!!
0"!
0#!
09!
08!
07!
06!
05!
04!
03!
02!
01!
00!
0/!
0.!
0-!
0,!
0+!
0*!
0)!
0(!
0'!
0&!
0%!
0$!
$end
#100000
1!
1U
#200000
0!
0U
#300000
1!
1U
#400000
0!
0U
#500000
1!
1U
#600000
0!
0U
#700000
1!
1U
#800000
0!
0U
#900000
1!
1U
#1000000
0!
0U
#1100000
1!
1U
#1200000
0!
0U
#1300000
1!
1U
#1400000
0!
0U
#1500000
1!
1U
#1600000
0!
0U
#1700000
1!
1U
#1800000
0!
0U
#1900000
1!
1U
#2000000
0!
0U
#2100000
1!
1U
#2200000
0!
0U
#2300000
1!
1U
#2400000
0!
0U
#2500000
1!
1U
#2600000
0!
0U
#2700000
1!
1U
#2800000
0!
0U
#2900000
1!
1U
#3000000
0!
0U
#3100000
1!
1U
#3200000
0!
0U
#3300000
1!
1U
#3400000
0!
0U
#3500000
1!
1U
#3600000
0!
0U
#3700000
1!
1U
#3800000
0!
0U
#3900000
1!
1U
#4000000
0!
0U
#4100000
1!
1U
#4200000
0!
0U
#4300000
1!
1U
#4400000
0!
0U
#4500000
1!
1U
#4600000
0!
0U
#4700000
1!
1U
#4800000
0!
0U
#4900000
1!
1U
#5000000
0!
0U
#5100000
1!
1U
#5200000
0!
0U
#5300000
1!
1U
#5400000
0!
0U
#5500000
1!
1U
#5600000
0!
0U
#5700000
1!
1U
#5800000
0!
0U
#5900000
1!
1U
#6000000
0!
0U
#6100000
1!
1U
#6200000
0!
0U
#6300000
1!
1U
#6400000
0!
0U
#6500000
1!
1U
#6600000
0!
0U
#6700000
1!
1U
#6800000
0!
0U
#6900000
1!
1U
#7000000
0!
0U
#7100000
1!
1U
#7200000
0!
0U
#7300000
1!
1U
#7400000
0!
0U
#7500000
1!
1U
#7600000
0!
0U
#7700000
1!
1U
#7800000
0!
0U
#7900000
1!
1U
#8000000
0!
0U
#8100000
1!
1U
#8200000
0!
0U
#8300000
1!
1U
#8400000
0!
0U
#8500000
1!
1U
#8600000
0!
0U
#8700000
1!
1U
#8800000
0!
0U
#8900000
1!
1U
#9000000
0!
0U
#9100000
1!
1U
#9200000
0!
0U
#9300000
1!
1U
#9400000
0!
0U
#9500000
1!
1U
#9600000
0!
0U
#9700000
1!
1U
#9800000
0!
0U
#9900000
1!
1U
#10000000
0!
0U
#10100000
1!
1U
#10200000
0!
0U
#10300000
1!
1U
#10400000
0!
0U
#10500000
1!
1U
#10600000
0!
0U
#10700000
1!
1U
#10800000
0!
0U
#10900000
1!
1U
#11000000
0!
0U
#11100000
1!
1U
#11200000
0!
0U
#11300000
1!
1U
#11400000
0!
0U
#11500000
1!
1U
#11600000
0!
0U
#11700000
1!
1U
#11800000
0!
0U
#11900000
1!
1U
#12000000
0!
0U
#12100000
1!
1U
#12200000
0!
0U
#12300000
1!
1U
#12400000
0!
0U
#12500000
1!
1U
#12600000
0!
0U
#12700000
1!
1U
#12800000
0!
0U
#12900000
1!
1U
#13000000
0!
0U
#13100000
1!
1U
#13200000
0!
0U
#13300000
1!
1U
#13400000
0!
0U
#13500000
1!
1U
#13600000
0!
0U
#13700000
1!
1U
#13800000
0!
0U
#13900000
1!
1U
#14000000
0!
0U
#14100000
1!
1U
#14200000
0!
0U
#14300000
1!
1U
#14400000
0!
0U
#14500000
1!
1U
#14600000
0!
0U
#14700000
1!
1U
#14800000
0!
0U
#14900000
1!
1U
#15000000
0!
0U
#15100000
1!
1U
#15200000
0!
0U
#15300000
1!
1U
#15400000
0!
0U
#15500000
1!
1U
#15600000
0!
0U
#15700000
1!
1U
#15800000
0!
0U
#15900000
1!
1U
#16000000
0!
0U
#16100000
1!
1U
#16200000
0!
0U
#16300000
1!
1U
#16400000
0!
0U
#16500000
1!
1U
#16600000
0!
0U
#16700000
1!
1U
#16800000
0!
0U
#16900000
1!
1U
#17000000
0!
0U
#17100000
1!
1U
#17200000
0!
0U
#17300000
1!
1U
#17400000
0!
0U
#17500000
1!
1U
#17600000
0!
0U
#17700000
1!
1U
#17800000
0!
0U
#17900000
1!
1U
#18000000
0!
0U
#18100000
1!
1U
#18200000
0!
0U
#18300000
1!
1U
#18400000
0!
0U
#18500000
1!
1U
#18600000
0!
0U
#18700000
1!
1U
#18800000
0!
0U
#18900000
1!
1U
#19000000
0!
0U
#19100000
1!
1U
#19200000
0!
0U
#19300000
1!
1U
#19400000
0!
0U
#19500000
1!
1U
#19600000
0!
0U
#19700000
1!
1U
#19800000
0!
0U
#19900000
1!
1U
#20000000
1"
0!
1W
0U
#20100000
1!
1U
#20200000
0!
0U
19!
1?
1X
18
0V
1Y
#20300000
1!
1U
#20400000
0!
0U
09!
18!
1@
0?
0X
0Z
08
17
1V
0Y
1Z
1Y
1[
0[
#20500000
1!
1U
#20600000
0!
0U
19!
1?
1X
18
0V
0Z
0Y
1[
#20700000
1!
1U
#20800000
0!
0U
09!
08!
17!
1A
0@
0?
0X
1Z
1\
08
07
16
1V
1Y
0[
0\
0Y
1[
1]
0]
#20900000
1!
1U
#21000000
0!
0U
19!
1?
1X
18
0V
1Y
#21100000
1!
1U
#21200000
0!
0U
09!
18!
1@
0?
0X
0Z
08
17
1V
0Y
1Z
1\
1Y
0[
0\
1[
1]
0]
#21300000
1!
1U
#21400000
0!
0U
19!
1?
1X
18
0V
0Z
0Y
1\
0[
1]
#21500000
1!
1U
#21600000
0!
0U
09!
08!
07!
16!
1B
0A
0@
0?
0X
1Z
0\
0^
08
07
06
15
1V
1Y
1[
0]
1^
0Y
0[
1]
1_
0_
#21700000
1!
1U
#21800000
0!
0U
19!
1?
1X
18
0V
1Y
#21900000
1!
1U
#22000000
0!
0U
09!
18!
1@
0?
0X
0Z
08
17
1V
0Y
1Z
1Y
1[
0[
#22100000
1!
1U
#22200000
0!
0U
19!
1?
1X
18
0V
0Z
0Y
1[
#22300000
1!
1U
#22400000
0!
0U
09!
08!
17!
1A
0@
0?
0X
1Z
1\
08
07
16
1V
1Y
0[
0\
0^
0Y
1[
0]
1^
1]
1_
0_
#22500000
1!
1U
#22600000
0!
0U
19!
1?
1X
18
0V
1Y
#22700000
1!
1U
#22800000
0!
0U
09!
18!
1@
0?
0X
0Z
08
17
1V
0Y
1Z
1\
1Y
0[
0\
0^
1[
0]
1^
1]
1_
0_
#22900000
1!
1U
#23000000
0!
0U
19!
1?
1X
18
0V
0Z
0Y
1\
0[
0^
0]
1_
#23100000
1!
1U
#23200000
0!
0U
09!
08!
07!
06!
15!
1C
0B
0A
0@
0?
0X
1Z
0\
1^
1`
08
07
06
05
14
1V
1Y
1[
1]
0_
0`
0Y
0[
0]
1_
1a
0a
#23300000
1!
1U
#23400000
0!
0U
19!
1?
1X
18
0V
1Y
#23500000
1!
1U
#23600000
0!
0U
09!
18!
1@
0?
0X
0Z
08
17
1V
0Y
1Z
1Y
1[
0[
#23700000
1!
1U
#23800000
0!
0U
19!
1?
1X
18
0V
0Z
0Y
1[
#23900000
1!
1U
#24000000
0!
0U
09!
08!
17!
1A
0@
0?
0X
1Z
1\
08
07
16
1V
1Y
0[
0\
0Y
1[
1]
0]
#24100000
1!
1U
#24200000
0!
0U
19!
1?
1X
18
0V
1Y
#24300000
1!
1U
#24400000
0!
0U
09!
18!
1@
0?
0X
0Z
08
17
1V
0Y
1Z
1\
1Y
0[
0\
1[
1]
0]
#24500000
1!
1U
#24600000
0!
0U
19!
1?
1X
18
0V
0Z
0Y
1\
0[
1]
#24700000
1!
1U
#24800000
0!
0U
09!
08!
07!
16!
1B
0A
0@
0?
0X
1Z
0\
0^
08
07
06
15
1V
1Y
1[
0]
1^
1`
0Y
0[
1]
0_
0`
1_
1a
0a
#24900000
1!
1U
#25000000
0!
0U
19!
1?
1X
18
0V
1Y
#25100000
1!
1U
#25200000
0!
0U
09!
18!
1@
0?
0X
0Z
08
17
1V
0Y
1Z
1Y
1[
0[
#25300000
1!
1U
#25400000
0!
0U
19!
1?
1X
18
0V
0Z
0Y
1[
#25500000
1!
1U
#25600000
0!
0U
09!
08!
17!
1A
0@
0?
0X
1Z
1\
08
07
16
1V
1Y
0[
0\
0^
0Y
1[
0]
1^
1`
1]
0_
0`
1_
1a
0a
#25700000
1!
1U
#25800000
0!
0U
19!
1?
1X
18
0V
1Y
#25900000
1!
1U
#26000000
0!
0U
09!
18!
1@
0?
0X
0Z
08
17
1V
0Y
1Z
1\
1Y
0[
0\
0^
1[
0]
1^
1`
1]
0_
0`
1_
1a
0a
#26100000
1!
1U
#26200000
0!
0U
19!
1?
1X
18
0V
0Z
0Y
1\
0[
0^
0]
1`
0_
1a
#26300000
1!
1U
#26400000
0!
0U
09!
08!
07!
06!
05!
14!
1D
0C
0B
0A
0@
0?
0X
1Z
0\
1^
0`
0b
08
07
06
05
04
13
1V
1Y
1[
1]
1_
0a
1b
0Y
0[
0]
0_
1a
1c
0c
#26500000
1!
1U
#26600000
0!
0U
19!
1?
1X
18
0V
1Y
#26700000
1!
1U
#26800000
0!
0U
09!
18!
1@
0?
0X
0Z
08
17
1V
0Y
1Z
1Y
1[
0[
#26900000
1!
1U
#27000000
0!
0U
19!
1?
1X
18
0V
0Z
0Y
1[
#27100000
1!
1U
#27200000
0!
0U
09!
08!
17!
1A
0@
0?
0X
1Z
1\
08
07
16
1V
1Y
0[
0\
0Y
1[
1]
0]
#27300000
1!
1U
#27400000
0!
0U
19!
1?
1X
18
0V
1Y
#27500000
1!
1U
#27600000
0!
0U
09!
18!
1@
0?
0X
0Z
08
17
1V
0Y
1Z
1\
1Y
0[
0\
1[
1]
0]
#27700000
1!
1U
#27800000
0!
0U
19!
1?
1X
18
0V
0Z
0Y
1\
0[
1]
#27900000
1!
1U
#28000000
0!
0U
09!
08!
07!
16!
1B
0A
0@
0?
0X
1Z
0\
0^
08
07
06
15
1V
1Y
1[
0]
1^
0Y
0[
1]
1_
0_
#28100000
1!
1U
#28200000
0!
0U
19!
1?
1X
18
0V
1Y
#28300000
1!
1U
#28400000
0!
0U
09!
18!
1@
0?
0X
0Z
08
17
1V
0Y
1Z
1Y
1[
0[
#28500000
1!
1U
#28600000
0!
0U
19!
1?
1X
18
0V
0Z
0Y
1[
#28700000
1!
1U
#28800000
0!
0U
09!
08!
17!
1A
0@
0?
0X
1Z
1\
08
07
16
1V
1Y
0[
0\
0^
0Y
1[
0]
1^
1]
1_
0_
#28900000
1!
1U
#29000000
0!
0U
19!
1?
1X
18
0V
1Y
#29100000
1!
1U
#29200000
0!
0U
09!
18!
1@
0?
0X
0Z
08
17
1V
0Y
1Z
1\
1Y
0[
0\
0^
1[
0]
1^
1]
1_
0_
#29300000
1!
1U
#29400000
0!
0U
19!
1?
1X
18
0V
0Z
0Y
1\
0[
0^
0]
1_
#29500000
1!
1U
#29600000
0!
0U
09!
08!
07!
06!
15!
1C
0B
0A
0@
0?
0X
1Z
0\
1^
1`
08
07
06
05
14
1V
1Y
1[
1]
0_
0`
0b
0Y
0[
0]
1_
0a
1b
1a
1c
0c
#29700000
1!
1U
#29800000
0!
0U
19!
1?
1X
18
0V
1Y
#29900000
1!
1U
#30000000
0!
0U
09!
18!
1@
0?
0X
0Z
08
17
1V
0Y
1Z
1Y
1[
0[
#30100000
1!
1U
#30200000
0!
0U
19!
1?
1X
18
0V
0Z
0Y
1[
#30300000
1!
1U
#30400000
0!
0U
09!
08!
17!
1A
0@
0?
0X
1Z
1\
08
07
16
1V
1Y
0[
0\
0Y
1[
1]
0]
#30500000
1!
1U
#30600000
0!
0U
19!
1?
1X
18
0V
1Y
#30700000
1!
1U
#30800000
0!
0U
09!
18!
1@
0?
0X
0Z
08
17
1V
0Y
1Z
1\
1Y
0[
0\
1[
1]
0]
#30900000
1!
1U
#31000000
0!
0U
19!
1?
1X
18
0V
0Z
0Y
1\
0[
1]
#31100000
1!
1U
#31200000
0!
0U
09!
08!
07!
16!
1B
0A
0@
0?
0X
1Z
0\
0^
08
07
06
15
1V
1Y
1[
0]
1^
1`
0Y
0[
1]
0_
0`
0b
1_
0a
1b
1a
1c
0c
#31300000
1!
1U
#31400000
0!
0U
19!
1?
1X
18
0V
1Y
#31500000
1!
1U
#31600000
0!
0U
09!
18!
1@
0?
0X
0Z
08
17
1V
0Y
1Z
1Y
1[
0[
#31700000
1!
1U
#31800000
0!
0U
19!
1?
1X
18
0V
0Z
0Y
1[
#31900000
1!
1U
#32000000
0!
0U
09!
08!
17!
1A
0@
0?
0X
1Z
1\
08
07
16
1V
1Y
0[
0\
0^
0Y
1[
0]
1^
1`
1]
0_
0`
0b
1_
0a
1b
1a
1c
0c
#32100000
1!
1U
#32200000
0!
0U
19!
1?
1X
18
0V
1Y
#32300000
1!
1U
#32400000
0!
0U
09!
18!
1@
0?
0X
0Z
08
17
1V
0Y
1Z
1\
1Y
0[
0\
0^
1[
0]
1^
1`
1]
0_
0`
0b
1_
0a
1b
1a
1c
0c
#32500000
1!
1U
#32600000
0!
0U
19!
1?
1X
18
0V
0Z
0Y
1\
0[
0^
0]
1`
0_
0b
0a
1c
#32700000
1!
1U
#32800000
0!
0U
09!
08!
07!
06!
05!
04!
13!
1E
0D
0C
0B
0A
0@
0?
0X
1Z
0\
1^
0`
1b
1d
08
07
06
05
04
03
12
1V
1Y
1[
1]
1_
1a
0c
0d
0Y
0[
0]
0_
0a
1c
1e
0e
#32900000
1!
1U
#33000000
0!
0U
19!
1?
1X
18
0V
1Y
#33100000
1!
1U
#33200000
0!
0U
09!
18!
1@
0?
0X
0Z
08
17
1V
0Y
1Z
1Y
1[
0[
#33300000
1!
1U
#33400000
0!
0U
19!
1?
1X
18
0V
0Z
0Y
1[
#33500000
1!
1U
#33600000
0!
0U
09!
08!
17!
1A
0@
0?
0X
1Z
1\
08
07
16
1V
1Y
0[
0\
0Y
1[
1]
0]
#33700000
1!
1U
#33800000
0!
0U
19!
1?
1X
18
0V
1Y
#33900000
1!
1U
#34000000
0!
0U
09!
18!
1@
0?
0X
0Z
08
17
1V
0Y
1Z
1\
1Y
0[
0\
1[
1]
0]
#34100000
1!
1U
#34200000
0!
0U
19!
1?
1X
18
0V
0Z
0Y
1\
0[
1]
#34300000
1!
1U
#34400000
0!
0U
09!
08!
07!
16!
1B
0A
0@
0?
0X
1Z
0\
0^
08
07
06
15
1V
1Y
1[
0]
1^
0Y
0[
1]
1_
0_
#34500000
1!
1U
#34600000
0!
0U
19!
1?
1X
18
0V
1Y
#34700000
1!
1U
#34800000
0!
0U
09!
18!
1@
0?
0X
0Z
08
17
1V
0Y
1Z
1Y
1[
0[
#34900000
1!
1U
#35000000
0!
0U
19!
1?
1X
18
0V
0Z
0Y
1[
#35100000
1!
1U
#35200000
0!
0U
09!
08!
17!
1A
0@
0?
0X
1Z
1\
08
07
16
1V
1Y
0[
0\
0^
0Y
1[
0]
1^
1]
1_
0_
#35300000
1!
1U
#35400000
0!
0U
19!
1?
1X
18
0V
1Y
#35500000
1!
1U
#35600000
0!
0U
09!
18!
1@
0?
0X
0Z
08
17
1V
0Y
1Z
1\
1Y
0[
0\
0^
1[
0]
1^
1]
1_
0_
#35700000
1!
1U
#35800000
0!
0U
19!
1?
1X
18
0V
0Z
0Y
1\
0[
0^
0]
1_
#35900000
1!
1U
#36000000
0!
0U
09!
08!
07!
06!
15!
1C
0B
0A
0@
0?
0X
1Z
0\
1^
1`
08
07
06
05
14
1V
1Y
1[
1]
0_
0`
0Y
0[
0]
1_
1a
0a
#36100000
1!
1U
#36200000
0!
0U
19!
1?
1X
18
0V
1Y
#36300000
1!
1U
#36400000
0!
0U
09!
18!
1@
0?
0X
0Z
08
17
1V
0Y
1Z
1Y
1[
0[
#36500000
1!
1U
#36600000
0!
0U
19!
1?
1X
18
0V
0Z
0Y
1[
#36700000
1!
1U
#36800000
0!
0U
09!
08!
17!
1A
0@
0?
0X
1Z
1\
08
07
16
1V
1Y
0[
0\
0Y
1[
1]
0]
#36900000
1!
1U
#37000000
0!
0U
19!
1?
1X
18
0V
1Y
#37100000
1!
1U
#37200000
0!
0U
09!
18!
1@
0?
0X
0Z
08
17
1V
0Y
1Z
1\
1Y
0[
0\
1[
1]
0]
#37300000
1!
1U
#37400000
0!
0U
19!
1?
1X
18
0V
0Z
0Y
1\
0[
1]
#37500000
1!
1U
#37600000
0!
0U
09!
08!
07!
16!
1B
0A
0@
0?
0X
1Z
0\
0^
08
07
06
15
1V
1Y
1[
0]
1^
1`
0Y
0[
1]
0_
0`
1_
1a
0a
#37700000
1!
1U
#37800000
0!
0U
19!
1?
1X
18
0V
1Y
#37900000
1!
1U
#38000000
0!
0U
09!
18!
1@
0?
0X
0Z
08
17
1V
0Y
1Z
1Y
1[
0[
#38100000
1!
1U
#38200000
0!
0U
19!
1?
1X
18
0V
0Z
0Y
1[
#38300000
1!
1U
#38400000
0!
0U
09!
08!
17!
1A
0@
0?
0X
1Z
1\
08
07
16
1V
1Y
0[
0\
0^
0Y
1[
0]
1^
1`
1]
0_
0`
1_
1a
0a
#38500000
1!
1U
#38600000
0!
0U
19!
1?
1X
18
0V
1Y
#38700000
1!
1U
#38800000
0!
0U
09!
18!
1@
0?
0X
0Z
08
17
1V
0Y
1Z
1\
1Y
0[
0\
0^
1[
0]
1^
1`
1]
0_
0`
1_
1a
0a
#38900000
1!
1U
#39000000
0!
0U
19!
1?
1X
18
0V
0Z
0Y
1\
0[
0^
0]
1`
0_
1a
#39100000
1!
1U
#39200000
0!
0U
09!
08!
07!
06!
05!
14!
1D
0C
0B
0A
0@
0?
0X
1Z
0\
1^
0`
0b
08
07
06
05
04
13
1V
1Y
1[
1]
1_
0a
1b
1d
0Y
0[
0]
0_
1a
0c
0d
1c
1e
0e
#39300000
1!
1U
#39400000
0!
0U
19!
1?
1X
18
0V
1Y
#39500000
1!
1U
#39600000
0!
0U
09!
18!
1@
0?
0X
0Z
08
17
1V
0Y
1Z
1Y
1[
0[
#39700000
1!
1U
#39800000
0!
0U
19!
1?
1X
18
0V
0Z
0Y
1[
#39900000
1!
1U
#40000000
0"
0!
0W
0U
09!
08!
17!
1A
0@
0?
0X
1Z
1\
08
07
16
1V
1Y
0[
0\
0Y
1[
1]
0]
#40100000
1!
1U
#40200000
0!
0U
07!
04!
03!
0E
0D
0A
06
03
02
0[
0a
0c
#40300000
1!
1U
#40400000
0!
0U
#40500000
1!
1U
#40600000
0!
0U
#40700000
1!
1U
#40800000
0!
0U
#40900000
1!
1U
#41000000
0!
0U
#41100000
1!
1U
#41200000
0!
0U
#41300000
1!
1U
#41400000
0!
0U
#41500000
1!
1U
#41600000
0!
0U
#41700000
1!
1U
#41800000
0!
0U
#41900000
1!
1U
#42000000
0!
0U
#42100000
1!
1U
#42200000
0!
0U
#42300000
1!
1U
#42400000
0!
0U
#42500000
1!
1U
#42600000
0!
0U
#42700000
1!
1U
#42800000
0!
0U
#42900000
1!
1U
#43000000
0!
0U
#43100000
1!
1U
#43200000
0!
0U
#43300000
1!
1U
#43400000
0!
0U
#43500000
1!
1U
#43600000
0!
0U
#43700000
1!
1U
#43800000
0!
0U
#43900000
1!
1U
#44000000
0!
0U
#44100000
1!
1U
#44200000
0!
0U
#44300000
1!
1U
#44400000
0!
0U
#44500000
1!
1U
#44600000
0!
0U
#44700000
1!
1U
#44800000
0!
0U
#44900000
1!
1U
#45000000
0!
0U
#45100000
1!
1U
#45200000
0!
0U
#45300000
1!
1U
#45400000
0!
0U
#45500000
1!
1U
#45600000
0!
0U
#45700000
1!
1U
#45800000
0!
0U
#45900000
1!
1U
#46000000
0!
0U
#46100000
1!
1U
#46200000
0!
0U
#46300000
1!
1U
#46400000
0!
0U
#46500000
1!
1U
#46600000
0!
0U
#46700000
1!
1U
#46800000
0!
0U
#46900000
1!
1U
#47000000
0!
0U
#47100000
1!
1U
#47200000
0!
0U
#47300000
1!
1U
#47400000
0!
0U
#47500000
1!
1U
#47600000
0!
0U
#47700000
1!
1U
#47800000
0!
0U
#47900000
1!
1U
#48000000
0!
0U
#48100000
1!
1U
#48200000
0!
0U
#48300000
1!
1U
#48400000
0!
0U
#48500000
1!
1U
#48600000
0!
0U
#48700000
1!
1U
#48800000
0!
0U
#48900000
1!
1U
#49000000
0!
0U
#49100000
1!
1U
#49200000
0!
0U
#49300000
1!
1U
#49400000
0!
0U
#49500000
1!
1U
#49600000
0!
0U
#49700000
1!
1U
#49800000
0!
0U
#49900000
1!
1U
#50000000
0!
0U
#50100000
1!
1U
#50200000
0!
0U
#50300000
1!
1U
#50400000
0!
0U
#50500000
1!
1U
#50600000
0!
0U
#50700000
1!
1U
#50800000
0!
0U
#50900000
1!
1U
#51000000
0!
0U
#51100000
1!
1U
#51200000
0!
0U
#51300000
1!
1U
#51400000
0!
0U
#51500000
1!
1U
#51600000
0!
0U
#51700000
1!
1U
#51800000
0!
0U
#51900000
1!
1U
#52000000
0!
0U
#52100000
1!
1U
#52200000
0!
0U
#52300000
1!
1U
#52400000
0!
0U
#52500000
1!
1U
#52600000
0!
0U
#52700000
1!
1U
#52800000
0!
0U
#52900000
1!
1U
#53000000
0!
0U
#53100000
1!
1U
#53200000
0!
0U
#53300000
1!
1U
#53400000
0!
0U
#53500000
1!
1U
#53600000
0!
0U
#53700000
1!
1U
#53800000
0!
0U
#53900000
1!
1U
#54000000
0!
0U
#54100000
1!
1U
#54200000
0!
0U
#54300000
1!
1U
#54400000
0!
0U
#54500000
1!
1U
#54600000
0!
0U
#54700000
1!
1U
#54800000
0!
0U
#54900000
1!
1U
#55000000
0!
0U
#55100000
1!
1U
#55200000
0!
0U
#55300000
1!
1U
#55400000
0!
0U
#55500000
1!
1U
#55600000
0!
0U
#55700000
1!
1U
#55800000
0!
0U
#55900000
1!
1U
#56000000
0!
0U
#56100000
1!
1U
#56200000
0!
0U
#56300000
1!
1U
#56400000
0!
0U
#56500000
1!
1U
#56600000
0!
0U
#56700000
1!
1U
#56800000
0!
0U
#56900000
1!
1U
#57000000
0!
0U
#57100000
1!
1U
#57200000
0!
0U
#57300000
1!
1U
#57400000
0!
0U
#57500000
1!
1U
#57600000
0!
0U
#57700000
1!
1U
#57800000
0!
0U
#57900000
1!
1U
#58000000
0!
0U
#58100000
1!
1U
#58200000
0!
0U
#58300000
1!
1U
#58400000
0!
0U
#58500000
1!
1U
#58600000
0!
0U
#58700000
1!
1U
#58800000
0!
0U
#58900000
1!
1U
#59000000
0!
0U
#59100000
1!
1U
#59200000
0!
0U
#59300000
1!
1U
#59400000
0!
0U
#59500000
1!
1U
#59600000
0!
0U
#59700000
1!
1U
#59800000
0!
0U
#59900000
1!
1U
#60000000
1"
0!
1W
0U
#60100000
1!
1U
#60200000
0!
0U
19!
1?
1X
18
0V
1Y
#60300000
1!
1U
#60400000
0!
0U
09!
18!
1@
0?
0X
0Z
08
17
1V
0Y
1Z
1Y
1[
0[
#60500000
1!
1U
#60600000
0!
0U
19!
1?
1X
18
0V
0Z
0Y
1[
#60700000
1!
1U
#60800000
0!
0U
09!
08!
17!
1A
0@
0?
0X
1Z
1\
08
07
16
1V
1Y
0[
0\
0Y
1[
1]
0]
#60900000
1!
1U
#61000000
0!
0U
19!
1?
1X
18
0V
1Y
#61100000
1!
1U
#61200000
0!
0U
09!
18!
1@
0?
0X
0Z
08
17
1V
0Y
1Z
1\
1Y
0[
0\
1[
1]
0]
#61300000
1!
1U
#61400000
0!
0U
19!
1?
1X
18
0V
0Z
0Y
1\
0[
1]
#61500000
1!
1U
#61600000
0!
0U
09!
08!
07!
16!
1B
0A
0@
0?
0X
1Z
0\
0^
08
07
06
15
1V
1Y
1[
0]
1^
0Y
0[
1]
1_
0_
#61700000
1!
1U
#61800000
0!
0U
19!
1?
1X
18
0V
1Y
#61900000
1!
1U
#62000000
0!
0U
09!
18!
1@
0?
0X
0Z
08
17
1V
0Y
1Z
1Y
1[
0[
#62100000
1!
1U
#62200000
0!
0U
19!
1?
1X
18
0V
0Z
0Y
1[
#62300000
1!
1U
