DivFreq/simulation/qsim/DivFreq.msim.vcd
$comment
	File created using the following command:
		vcd file DivFreq.msim.vcd -direction
$end
$date
	Sat Oct 02 11:21:24 2021
$end
$version
	ModelSim Version 2020.1
$end
$timescale
	1ps
$end

$scope module DivFreq_vlg_vec_tst $end
$var reg 1 ! ClkIn $end
$var wire 1 " ClkOut $end

$scope module i1 $end
$var wire 1 # gnd $end
$var wire 1 $ vcc $end
$var wire 1 % unknown $end
$var tri1 1 & devclrn $end
$var tri1 1 ' devpor $end
$var tri1 1 ( devoe $end
$var wire 1 ) ClkOut~output_o $end
$var wire 1 * ClkIn~input_o $end
$var wire 1 + ClkIn~inputclkctrl_outclk $end
$var wire 1 , Cnt[0]~14_combout $end
$var wire 1 - Cnt[0]~15 $end
$var wire 1 . Cnt[1]~16_combout $end
$var wire 1 / Cnt[1]~17 $end
$var wire 1 0 Cnt[2]~18_combout $end
$var wire 1 1 Cnt[2]~19 $end
$var wire 1 2 Cnt[3]~20_combout $end
$var wire 1 3 Cnt[3]~21 $end
$var wire 1 4 Cnt[4]~22_combout $end
$var wire 1 5 Cnt[4]~23 $end
$var wire 1 6 Cnt[5]~24_combout $end
$var wire 1 7 Cnt[5]~25 $end
$var wire 1 8 Cnt[6]~26_combout $end
$var wire 1 9 Cnt[6]~27 $end
$var wire 1 : Cnt[7]~28_combout $end
$var wire 1 ; Cnt[7]~29 $end
$var wire 1 < Cnt[8]~30_combout $end
$var wire 1 = Cnt[8]~31 $end
$var wire 1 > Cnt[9]~32_combout $end
$var wire 1 ? Cnt[9]~33 $end
$var wire 1 @ Cnt[10]~34_combout $end
$var wire 1 A Cnt[10]~35 $end
$var wire 1 B Cnt[11]~36_combout $end
$var wire 1 C Cnt[11]~37 $end
$var wire 1 D Cnt[12]~38_combout $end
$var wire 1 E Cnt[12]~39 $end
$var wire 1 F Cnt[13]~40_combout $end
$var wire 1 G LessThan1~1_combout $end
$var wire 1 H LessThan1~0_combout $end
$var wire 1 I LessThan1~2_combout $end
$var wire 1 J LessThan1~3_combout $end
$var wire 1 K LessThan1~4_combout $end
$var wire 1 L ClkOut~reg0_q $end
$var wire 1 M Cnt [13] $end
$var wire 1 N Cnt [12] $end
$var wire 1 O Cnt [11] $end
$var wire 1 P Cnt [10] $end
$var wire 1 Q Cnt [9] $end
$var wire 1 R Cnt [8] $end
$var wire 1 S Cnt [7] $end
$var wire 1 T Cnt [6] $end
$var wire 1 U Cnt [5] $end
$var wire 1 V Cnt [4] $end
$var wire 1 W Cnt [3] $end
$var wire 1 X Cnt [2] $end
$var wire 1 Y Cnt [1] $end
$var wire 1 Z Cnt [0] $end
$upscope $end
$upscope $end
$enddefinitions $end
#0
$dumpvars
0!
0"
0#
1$
x%
1&
1'
1(
0)
0*
0+
1,
0-
0.
1/
00
01
02
13
04
05
06
17
08
09
0:
1;
0<
0=
0>
1?
0@
0A
0B
1C
0D
0E
0F
1G
1H
1I
0J
1K
0L
0Z
0Y
0X
0W
0V
0U
0T
0S
0R
0Q
0P
0O
0N
0M
$end
#5000000
1!
1*
1+
#10000000
0!
0*
0+
1Z
1L
1)
1-
1"
0K
0,
1.
#15000000
1!
1*
1+
#20000000
0!
0*
0+
1Y
0Z
0L
0)
0H
0/
0-
0"
0.
1K
1,
1J
1/
10
1.
0K
00
#25000000
1!
1*
1+
#30000000
0!
0*
0+
0Y
1H
0.
0J
1K
#35000000
1!
1*
1+
#40000000
0!
0*
0+
1Z
1L
1)
1-
1"
0K
0,
1.
#45000000
1!
1*
1+
#50000000
0!
0*
0+
1Y
0Z
0L
0)
0H
0/
0-
0"
0.
1K
1,
1J
1/
10
1.
0K
00
#55000000
1!
1*
1+
#60000000
0!
0*
0+
0Y
1H
0.
0J
1K
#65000000
1!
1*
1+
#70000000
0!
0*
0+
1Z
1L
1)
1-
1"
0K
0,
1.
#75000000
1!
1*
1+
#80000000
0!
0*
0+
1Y
0Z
0L
0)
0H
0/
0-
0"
0.
1K
1,
1J
1/
10
1.
0K
00
#85000000
1!
1*
1+
#90000000
0!
0*
0+
0Y
1H
0.
0J
1K
#95000000
1!
1*
1+
